<?xml version="1.0" encoding="UTF-8" standalone="no"?>
<!-- Created with Inkscape (http://www.inkscape.org/) -->
<svg
   xmlns:dc="http://purl.org/dc/elements/1.1/"
   xmlns:cc="http://web.resource.org/cc/"
   xmlns:rdf="http://www.w3.org/1999/02/22-rdf-syntax-ns#"
   xmlns:svg="http://www.w3.org/2000/svg"
   xmlns="http://www.w3.org/2000/svg"
   xmlns:sodipodi="http://inkscape.sourceforge.net/DTD/sodipodi-0.dtd"
   xmlns:inkscape="http://www.inkscape.org/namespaces/inkscape"
   version="1.0"
   width="200"
   height="160pt"
   id="svg2"
   sodipodi:version="0.32"
   inkscape:version="0.43"
   sodipodi:docname="A14.svg"
   sodipodi:docbase="D:\obrazki\svg\inne\żeglugowe\A">
  <metadata
     id="metadata5">
    <rdf:RDF>
      <cc:Work
         rdf:about="">
        <dc:format>image/svg+xml</dc:format>
        <dc:type
           rdf:resource="http://purl.org/dc/dcmitype/StillImage" />
      </cc:Work>
    </rdf:RDF>
  </metadata>
  <sodipodi:namedview
     inkscape:window-height="708"
     inkscape:window-width="1024"
     inkscape:pageshadow="2"
     inkscape:pageopacity="0.0"
     borderopacity="1.0"
     bordercolor="#666666"
     pagecolor="#ffffff"
     id="base"
     showgrid="true"
     inkscape:grid-bbox="false"
     inkscape:grid-points="false"
     gridspacingx="10px"
     gridspacingy="10px"
     gridtolerance="3px"
     inkscape:zoom="0.5"
     inkscape:cx="591.78322"
     inkscape:cy="18.676424"
     inkscape:window-x="-4"
     inkscape:window-y="-4"
     inkscape:current-layer="svg2" />
  <defs
     id="defs5" />
  <rect
     style="opacity:1;color:#000000;fill:#ffffff;fill-opacity:1;fill-rule:evenodd;stroke:none;stroke-width:2;stroke-linecap:butt;stroke-linejoin:miter;marker:none;marker-start:none;marker-mid:none;marker-end:none;stroke-miterlimit:4;stroke-dasharray:none;stroke-dashoffset:0;stroke-opacity:1;visibility:visible;display:inline;overflow:visible"
     id="rect1307"
     width="200"
     height="200"
     x="0"
     y="0" />
  <rect
     style="opacity:1;color:#000000;fill:#f6000e;fill-opacity:1;fill-rule:evenodd;stroke:none;stroke-width:2;stroke-linecap:butt;stroke-linejoin:miter;marker:none;marker-start:none;marker-mid:none;marker-end:none;stroke-miterlimit:4;stroke-dasharray:none;stroke-dashoffset:0;stroke-opacity:1;visibility:visible;display:inline;overflow:visible"
     id="rect1314"
     width="20"
     height="200"
     x="0"
     y="0" />
  <rect
     style="opacity:1;color:#000000;fill:#f6000e;fill-opacity:1;fill-rule:evenodd;stroke:none;stroke-width:2;stroke-linecap:butt;stroke-linejoin:miter;marker:none;marker-start:none;marker-mid:none;marker-end:none;stroke-miterlimit:4;stroke-dasharray:none;stroke-dashoffset:0;stroke-opacity:1;visibility:visible;display:inline;overflow:visible"
     id="rect2189"
     width="20"
     height="200"
     x="180"
     y="0" />
  <rect
     style="opacity:1;color:#000000;fill:#f6000e;fill-opacity:1;fill-rule:evenodd;stroke:none;stroke-width:2;stroke-linecap:butt;stroke-linejoin:miter;marker:none;marker-start:none;marker-mid:none;marker-end:none;stroke-miterlimit:4;stroke-dasharray:none;stroke-dashoffset:0;stroke-opacity:1;visibility:visible;display:inline;overflow:visible"
     id="rect2191"
     width="20"
     height="200"
     x="180"
     y="-200"
     transform="matrix(5.551115e-17,1,-1,1.249001e-16,0,0)" />
  <rect
     style="opacity:1;color:#000000;fill:#f6000e;fill-opacity:1;fill-rule:evenodd;stroke:none;stroke-width:2;stroke-linecap:butt;stroke-linejoin:miter;marker:none;marker-start:none;marker-mid:none;marker-end:none;stroke-miterlimit:4;stroke-dasharray:none;stroke-dashoffset:0;stroke-opacity:1;visibility:visible;display:inline;overflow:visible"
     id="rect2193"
     width="20"
     height="200"
     x="-3.4416895e-015"
     y="-200"
     transform="matrix(5.551115e-17,1,-1,1.249001e-16,0,0)" />
  <rect
     style="opacity:1;color:#000000;fill:#f6000e;fill-opacity:1;fill-rule:evenodd;stroke:none;stroke-width:2;stroke-linecap:butt;stroke-linejoin:miter;marker:none;marker-start:none;marker-mid:none;marker-end:none;stroke-miterlimit:4;stroke-dasharray:none;stroke-dashoffset:0;stroke-opacity:1;visibility:visible;display:inline;overflow:visible"
     id="rect1315"
     width="20.000017"
     height="246.3642"
     x="-9.9999866"
     y="18.239281"
     transform="matrix(0.707107,-0.707107,0.707107,0.707107,0,0)" />
  <g
     id="g3075"
     transform="translate(-490.3165,-1.796227)">
    <path
       sodipodi:nodetypes="ccccsssssccccccsscscc"
       id="path1323"
       d="M 564.25,151.5 L 589.75,160 C 592.12258,156.58333 590.18721,153.16667 591,149.75 C 593.41188,139.5 601.82007,129.25 600.5,119 C 612.66762,110.58572 634.89074,111.54018 637.75,96.75 C 638.64689,92.110621 639.15246,88.089397 642.75,82.75 C 647.40618,75.839397 653.22471,75.886224 652.5,60 C 652.38874,57.561003 652.41904,55.475619 654.25,52.75 C 658.16647,46.919824 660.70071,38.107831 649,35.75 C 640.12635,33.961856 633.80809,47.831229 642.75,55.25 L 635.5,59.5 L 624.75,63.25 C 614.40217,63.181165 599.23988,64.926784 587.25,65 C 578.91832,61.117326 571.3018,71.920721 584.5,70.5 C 598.16667,69.75 611.83333,72.5 625.5,70.5 C 625.5,70.5 627.10394,77.822029 621,89 C 619.66399,91.446602 618.31235,93.605411 615.5,95 C 608.64897,98.397298 600.89345,103.87976 592.75,110 C 589.76329,113.91667 589.37642,117.82832 589,121.75 C 588.12862,130.82832 586.46987,139.91667 582.25,149 C 577.75,151.65993 570.75,149.12377 564.25,151.5 z "
       style="fill:#000000;fill-opacity:1;fill-rule:evenodd;stroke:none;stroke-width:1px;stroke-linecap:butt;stroke-linejoin:miter;stroke-opacity:1" />
    <path
       id="path2198"
       d="M 580.67471,68.831692 L 524.10617,70.953012"
       style="fill:none;fill-opacity:0.75;fill-rule:evenodd;stroke:#000000;stroke-width:2;stroke-linecap:butt;stroke-linejoin:miter;stroke-miterlimit:4;stroke-dasharray:none;stroke-opacity:1" />
    <path
       sodipodi:nodetypes="cccccc"
       id="path3073"
       d="M 545.5,147.75 L 639.5,177.5 L 640.5,175.75 L 545.5,145.5 C 534.31693,139.41667 530.04075,132.83333 526.75,126.75 C 529.88511,133.75 535.70403,140.75 545.5,147.75 z "
       style="fill:#000000;fill-opacity:1;fill-rule:evenodd;stroke:#000000;stroke-width:1px;stroke-linecap:butt;stroke-linejoin:miter;stroke-opacity:1" />
  </g>
</svg>
