<?xml version="1.0" encoding="UTF-8" standalone="no"?>
<!-- Created with Inkscape (http://www.inkscape.org/) -->
<svg
   xmlns:dc="http://purl.org/dc/elements/1.1/"
   xmlns:cc="http://web.resource.org/cc/"
   xmlns:rdf="http://www.w3.org/1999/02/22-rdf-syntax-ns#"
   xmlns:svg="http://www.w3.org/2000/svg"
   xmlns="http://www.w3.org/2000/svg"
   xmlns:sodipodi="http://inkscape.sourceforge.net/DTD/sodipodi-0.dtd"
   xmlns:inkscape="http://www.inkscape.org/namespaces/inkscape"
   version="1.0"
   width="200"
   height="160pt"
   id="svg2"
   sodipodi:version="0.32"
   inkscape:version="0.43"
   sodipodi:docname="A6.svg"
   sodipodi:docbase="D:\obrazki\svg\inne\żeglugowe\A">
  <metadata
     id="metadata5">
    <rdf:RDF>
      <cc:Work
         rdf:about="">
        <dc:format>image/svg+xml</dc:format>
        <dc:type
           rdf:resource="http://purl.org/dc/dcmitype/StillImage" />
      </cc:Work>
    </rdf:RDF>
  </metadata>
  <sodipodi:namedview
     inkscape:window-height="708"
     inkscape:window-width="1024"
     inkscape:pageshadow="2"
     inkscape:pageopacity="0.0"
     borderopacity="1.0"
     bordercolor="#666666"
     pagecolor="#ffffff"
     id="base"
     showgrid="true"
     inkscape:grid-bbox="true"
     inkscape:grid-points="true"
     gridspacingx="10px"
     gridspacingy="10px"
     gridtolerance="3px"
     inkscape:zoom="0.5"
     inkscape:cx="260.98461"
     inkscape:cy="51.405832"
     inkscape:window-x="-4"
     inkscape:window-y="-4"
     inkscape:current-layer="svg2" />
  <defs
     id="defs5" />
  <rect
     style="opacity:1;color:#000000;fill:#ffffff;fill-opacity:1;fill-rule:evenodd;stroke:none;stroke-width:2;stroke-linecap:butt;stroke-linejoin:miter;marker:none;marker-start:none;marker-mid:none;marker-end:none;stroke-miterlimit:4;stroke-dasharray:none;stroke-dashoffset:0;stroke-opacity:1;visibility:visible;display:inline;overflow:visible"
     id="rect1307"
     width="200"
     height="200"
     x="0"
     y="0" />
  <rect
     style="opacity:1;color:#000000;fill:#f6000e;fill-opacity:1;fill-rule:evenodd;stroke:none;stroke-width:2;stroke-linecap:butt;stroke-linejoin:miter;marker:none;marker-start:none;marker-mid:none;marker-end:none;stroke-miterlimit:4;stroke-dasharray:none;stroke-dashoffset:0;stroke-opacity:1;visibility:visible;display:inline;overflow:visible"
     id="rect1314"
     width="20"
     height="200"
     x="0"
     y="0" />
  <rect
     style="opacity:1;color:#000000;fill:#f6000e;fill-opacity:1;fill-rule:evenodd;stroke:none;stroke-width:2;stroke-linecap:butt;stroke-linejoin:miter;marker:none;marker-start:none;marker-mid:none;marker-end:none;stroke-miterlimit:4;stroke-dasharray:none;stroke-dashoffset:0;stroke-opacity:1;visibility:visible;display:inline;overflow:visible"
     id="rect2189"
     width="20"
     height="200"
     x="180"
     y="0" />
  <rect
     style="opacity:1;color:#000000;fill:#f6000e;fill-opacity:1;fill-rule:evenodd;stroke:none;stroke-width:2;stroke-linecap:butt;stroke-linejoin:miter;marker:none;marker-start:none;marker-mid:none;marker-end:none;stroke-miterlimit:4;stroke-dasharray:none;stroke-dashoffset:0;stroke-opacity:1;visibility:visible;display:inline;overflow:visible"
     id="rect2191"
     width="20"
     height="200"
     x="180"
     y="-200"
     transform="matrix(5.551115e-17,1,-1,1.249001e-16,0,0)" />
  <rect
     style="opacity:1;color:#000000;fill:#f6000e;fill-opacity:1;fill-rule:evenodd;stroke:none;stroke-width:2;stroke-linecap:butt;stroke-linejoin:miter;marker:none;marker-start:none;marker-mid:none;marker-end:none;stroke-miterlimit:4;stroke-dasharray:none;stroke-dashoffset:0;stroke-opacity:1;visibility:visible;display:inline;overflow:visible"
     id="rect2193"
     width="20"
     height="200"
     x="-3.4416895e-015"
     y="-200"
     transform="matrix(5.551115e-17,1,-1,1.249001e-16,0,0)" />
  <rect
     style="opacity:1;color:#000000;fill:#f6000e;fill-opacity:1;fill-rule:evenodd;stroke:none;stroke-width:2;stroke-linecap:butt;stroke-linejoin:miter;marker:none;marker-start:none;marker-mid:none;marker-end:none;stroke-miterlimit:4;stroke-dasharray:none;stroke-dashoffset:0;stroke-opacity:1;visibility:visible;display:inline;overflow:visible"
     id="rect1315"
     width="20.000017"
     height="246.3642"
     x="-9.9999866"
     y="18.239281"
     transform="matrix(0.707107,-0.707107,0.707107,0.707107,0,0)" />
  <g
     id="g1360"
     transform="translate(-419.625,5.252519)">
    <rect
       y="40"
       x="497"
       height="110"
       width="13"
       id="rect1324"
       style="opacity:1;color:#000000;fill:#010101;fill-opacity:1;fill-rule:evenodd;stroke:none;stroke-width:2;stroke-linecap:butt;stroke-linejoin:miter;marker:none;marker-start:none;marker-mid:none;marker-end:none;stroke-miterlimit:4;stroke-dasharray:none;stroke-dashoffset:0;stroke-opacity:1;visibility:visible;display:inline;overflow:visible" />
    <rect
       transform="matrix(0,1,-1,0,0,0)"
       y="-517"
       x="113.5"
       height="51.5"
       width="13"
       id="rect1328"
       style="opacity:1;color:#000000;fill:#010101;fill-opacity:1;fill-rule:evenodd;stroke:none;stroke-width:2;stroke-linecap:butt;stroke-linejoin:miter;marker:none;marker-start:none;marker-mid:none;marker-end:none;stroke-miterlimit:4;stroke-dasharray:none;stroke-dashoffset:0;stroke-opacity:1;visibility:visible;display:inline;overflow:visible" />
    <path
       sodipodi:nodetypes="cccccc"
       id="rect1330"
       d="M 486.09324,-159.87512 L 486.09324,-75.375069 L 476.35646,-69.281392 L 473.09323,-75.375069 L 473.28627,-154.43125 L 486.09324,-159.87512 z "
       style="color:#000000;fill:#010101;fill-opacity:1;fill-rule:evenodd;stroke:none;stroke-width:2;stroke-linecap:butt;stroke-linejoin:miter;marker:none;marker-start:none;marker-mid:none;marker-end:none;stroke-miterlimit:4;stroke-dashoffset:0;stroke-opacity:1;visibility:visible;display:inline;overflow:visible"
       transform="matrix(0.922467,0.386076,-0.386076,0.922467,0,0)" />
    <g
       id="g1347">
      <path
         sodipodi:nodetypes="ccccc"
         style="color:#000000;fill:#010101;fill-opacity:1;fill-rule:evenodd;stroke:none;stroke-width:2;stroke-linecap:butt;stroke-linejoin:miter;marker:none;marker-start:none;marker-mid:none;marker-end:none;stroke-miterlimit:4;stroke-dashoffset:0;stroke-opacity:1;visibility:visible;display:inline;overflow:visible"
         d="M 526.75,64.75 L 540,64.75 L 540,124.5 L 526.75,124.5 L 526.75,64.75 z "
         id="rect1333" />
      <path
         style="opacity:1;color:#000000;fill:#010101;fill-opacity:1;fill-rule:evenodd;stroke:none;stroke-width:2;stroke-linecap:butt;stroke-linejoin:miter;marker:none;marker-start:none;marker-mid:none;marker-end:none;stroke-miterlimit:4;stroke-dasharray:none;stroke-dashoffset:0;stroke-opacity:1;visibility:visible;display:inline;overflow:visible"
         d="M 550.75,52.750352 C 550.52144,52.750352 550.31324,52.738898 550.08752,52.750352 C 543.09001,53.105438 540.00035,58.914751 540.00035,66 L 526.7507,66 C 526.7507,51.715224 535.56115,40.039258 549.71487,39.500704 C 550.05457,39.48778 550.40716,39.500704 550.75,39.500704"
         id="path1335"
         sodipodi:nodetypes="cccccs" />
      <path
         style="opacity:1;color:#000000;fill:#010101;fill-opacity:1;fill-rule:evenodd;stroke:none;stroke-width:2;stroke-linecap:butt;stroke-linejoin:miter;marker:none;marker-start:none;marker-mid:none;marker-end:none;stroke-miterlimit:4;stroke-dasharray:none;stroke-dashoffset:0;stroke-opacity:1;visibility:visible;display:inline;overflow:visible"
         d="M 550.75,136.74461 C 550.52144,136.74461 550.31324,136.75606 550.08752,136.74461 C 543.09001,136.38952 540.00035,130.58021 540.00035,123.49496 L 526.7507,123.49496 C 526.7507,137.77974 535.56115,149.4557 549.71487,149.99426 C 550.05457,150.00718 550.40716,149.99426 550.75,149.99426"
         id="path1345"
         sodipodi:nodetypes="cccccs" />
    </g>
    <g
       transform="matrix(-1,0,0,1,1100.5,0)"
       id="g1352">
      <path
         sodipodi:nodetypes="ccccc"
         style="color:#000000;fill:#010101;fill-opacity:1;fill-rule:evenodd;stroke:none;stroke-width:2;stroke-linecap:butt;stroke-linejoin:miter;marker:none;marker-start:none;marker-mid:none;marker-end:none;stroke-miterlimit:4;stroke-dashoffset:0;stroke-opacity:1;visibility:visible;display:inline;overflow:visible"
         d="M 526.75,64.75 L 540,64.75 L 540,124.5 L 526.75,124.5 L 526.75,64.75 z "
         id="path1354" />
      <path
         style="opacity:1;color:#000000;fill:#010101;fill-opacity:1;fill-rule:evenodd;stroke:none;stroke-width:2;stroke-linecap:butt;stroke-linejoin:miter;marker:none;marker-start:none;marker-mid:none;marker-end:none;stroke-miterlimit:4;stroke-dasharray:none;stroke-dashoffset:0;stroke-opacity:1;visibility:visible;display:inline;overflow:visible"
         d="M 550.75,52.750352 C 550.52144,52.750352 550.31324,52.738898 550.08752,52.750352 C 543.09001,53.105438 540.00035,58.914751 540.00035,66 L 526.7507,66 C 526.7507,51.715224 535.56115,40.039258 549.71487,39.500704 C 550.05457,39.48778 550.40716,39.500704 550.75,39.500704"
         id="path1356"
         sodipodi:nodetypes="cccccs" />
      <path
         style="opacity:1;color:#000000;fill:#010101;fill-opacity:1;fill-rule:evenodd;stroke:none;stroke-width:2;stroke-linecap:butt;stroke-linejoin:miter;marker:none;marker-start:none;marker-mid:none;marker-end:none;stroke-miterlimit:4;stroke-dasharray:none;stroke-dashoffset:0;stroke-opacity:1;visibility:visible;display:inline;overflow:visible"
         d="M 550.75,136.74461 C 550.52144,136.74461 550.31324,136.75606 550.08752,136.74461 C 543.09001,136.38952 540.00035,130.58021 540.00035,123.49496 L 526.7507,123.49496 C 526.7507,137.77974 535.56115,149.4557 549.71487,149.99426 C 550.05457,150.00718 550.40716,149.99426 550.75,149.99426"
         id="path1358"
         sodipodi:nodetypes="cccccs" />
    </g>
  </g>
</svg>
