<?xml version="1.0" encoding="UTF-8" standalone="no"?>
<!-- Created with Inkscape (http://www.inkscape.org/) -->
<svg
   xmlns:dc="http://purl.org/dc/elements/1.1/"
   xmlns:cc="http://web.resource.org/cc/"
   xmlns:rdf="http://www.w3.org/1999/02/22-rdf-syntax-ns#"
   xmlns:svg="http://www.w3.org/2000/svg"
   xmlns="http://www.w3.org/2000/svg"
   xmlns:sodipodi="http://inkscape.sourceforge.net/DTD/sodipodi-0.dtd"
   xmlns:inkscape="http://www.inkscape.org/namespaces/inkscape"
   version="1.0"
   width="200"
   height="160pt"
   id="svg2"
   sodipodi:version="0.32"
   inkscape:version="0.43"
   sodipodi:docname="POL Znak Żeglugowy B11b.svg"
   sodipodi:docbase="D:\obrazki\svg\inne\żeglugowe\B">
  <metadata
     id="metadata5">
    <rdf:RDF>
      <cc:Work
         rdf:about="">
        <dc:format>image/svg+xml</dc:format>
        <dc:type
           rdf:resource="http://purl.org/dc/dcmitype/StillImage" />
      </cc:Work>
    </rdf:RDF>
  </metadata>
  <sodipodi:namedview
     inkscape:window-height="708"
     inkscape:window-width="1024"
     inkscape:pageshadow="2"
     inkscape:pageopacity="0.0"
     borderopacity="1.0"
     bordercolor="#666666"
     pagecolor="#ffffff"
     id="base"
     showgrid="true"
     inkscape:grid-bbox="true"
     inkscape:grid-points="true"
     gridspacingx="10px"
     gridspacingy="10px"
     gridtolerance="3px"
     inkscape:zoom="1"
     inkscape:cx="131.20295"
     inkscape:cy="94.479251"
     inkscape:window-x="-4"
     inkscape:window-y="-4"
     inkscape:current-layer="svg2" />
  <defs
     id="defs5" />
  <rect
     style="opacity:1;color:#000000;fill:#ffffff;fill-opacity:1;fill-rule:evenodd;stroke:none;stroke-width:2;stroke-linecap:butt;stroke-linejoin:miter;marker:none;marker-start:none;marker-mid:none;marker-end:none;stroke-miterlimit:4;stroke-dasharray:none;stroke-dashoffset:0;stroke-opacity:1;visibility:visible;display:inline;overflow:visible"
     id="rect1307"
     width="200"
     height="200"
     x="-200"
     y="0"
     transform="scale(-1,1)" />
  <rect
     style="opacity:1;color:#000000;fill:#f6000e;fill-opacity:1;fill-rule:evenodd;stroke:none;stroke-width:2;stroke-linecap:butt;stroke-linejoin:miter;marker:none;marker-start:none;marker-mid:none;marker-end:none;stroke-miterlimit:4;stroke-dasharray:none;stroke-dashoffset:0;stroke-opacity:1;visibility:visible;display:inline;overflow:visible"
     id="rect1314"
     width="20"
     height="200"
     x="-200"
     y="0"
     transform="scale(-1,1)" />
  <rect
     style="opacity:1;color:#000000;fill:#f6000e;fill-opacity:1;fill-rule:evenodd;stroke:none;stroke-width:2;stroke-linecap:butt;stroke-linejoin:miter;marker:none;marker-start:none;marker-mid:none;marker-end:none;stroke-miterlimit:4;stroke-dasharray:none;stroke-dashoffset:0;stroke-opacity:1;visibility:visible;display:inline;overflow:visible"
     id="rect2189"
     width="20"
     height="200"
     x="-20"
     y="0"
     transform="scale(-1,1)" />
  <rect
     style="opacity:1;color:#000000;fill:#f6000e;fill-opacity:1;fill-rule:evenodd;stroke:none;stroke-width:2;stroke-linecap:butt;stroke-linejoin:miter;marker:none;marker-start:none;marker-mid:none;marker-end:none;stroke-miterlimit:4;stroke-dasharray:none;stroke-dashoffset:0;stroke-opacity:1;visibility:visible;display:inline;overflow:visible"
     id="rect2191"
     width="20"
     height="200"
     x="180"
     y="9.9920072e-015"
     transform="matrix(-5.551115e-17,1,1,1.249001e-16,0,0)" />
  <rect
     style="opacity:1;color:#000000;fill:#f6000e;fill-opacity:1;fill-rule:evenodd;stroke:none;stroke-width:2;stroke-linecap:butt;stroke-linejoin:miter;marker:none;marker-start:none;marker-mid:none;marker-end:none;stroke-miterlimit:4;stroke-dasharray:none;stroke-dashoffset:0;stroke-opacity:1;visibility:visible;display:inline;overflow:visible"
     id="rect2193"
     width="20"
     height="200"
     x="-2.8421709e-014"
     y="-1.5777218e-030"
     transform="matrix(-5.551115e-17,1,1,1.249001e-16,0,0)" />
  <path
     style="font-size:57.79857635px;font-style:normal;font-variant:normal;font-weight:bold;font-stretch:normal;text-align:start;line-height:125%;writing-mode:lr-tb;text-anchor:start;fill:#000000;fill-opacity:1;stroke:none;stroke-width:1px;stroke-linecap:butt;stroke-linejoin:miter;stroke-opacity:1;font-family:Arial"
     d="M 58.27383,80 L 43.485522,38.626605 L 52.544772,38.626605 L 63.015119,69.247433 L 73.146804,38.626605 L 82.008499,38.626605 L 67.19197,80 L 58.27383,80 M 86.354682,80 L 86.354682,38.626605 L 94.708382,38.626605 L 94.708382,54.910677 L 111.07712,54.910677 L 111.07712,38.626605 L 119.43082,38.626605 L 119.43082,80 L 111.07712,80 L 111.07712,61.909723 L 94.708382,61.909723 L 94.708382,80 L 86.354682,80 M 128.1514,80 L 128.1514,38.626605 L 156.51448,38.626605 L 156.51448,45.625651 L 136.50511,45.625651 L 136.50511,55.418672 L 153.77695,55.418672 L 153.77695,62.417718 L 136.50511,62.417718 L 136.50511,80 L 128.1514,80"
     id="text1310" />
  <path
     style="font-size:57.79857635px;font-style:normal;font-variant:normal;font-weight:bold;font-stretch:normal;text-align:center;line-height:125%;writing-mode:lr-tb;text-anchor:middle;fill:#000000;fill-opacity:1;stroke:none;stroke-width:1px;stroke-linecap:butt;stroke-linejoin:miter;stroke-opacity:1;font-family:Arial"
     d="M 91.942632,160 L 84.012261,160 L 84.012261,130.11294 C 81.114794,132.82228 77.69994,134.82604 73.767689,136.12422 L 73.767689,128.92762 C 75.837293,128.25033 78.08564,126.97093 80.512738,125.08943 C 82.939812,123.18919 84.604906,120.97847 85.508025,118.45727 L 91.942632,118.45727 L 91.942632,160 M 124.11567,160 L 116.1853,160 L 116.1853,130.11294 C 113.28783,132.82228 109.87297,134.82604 105.94072,136.12422 L 105.94072,128.92762 C 108.01033,128.25033 110.25867,126.97093 112.68577,125.08943 C 115.11285,123.18919 116.77794,120.97847 117.68106,118.45727 L 124.11567,118.45727 L 124.11567,160"
     id="text1311" />
</svg>
