<?xml version="1.0" encoding="UTF-8" standalone="no"?>
<!-- Created with Inkscape (http://www.inkscape.org/) -->
<svg
   xmlns:dc="http://purl.org/dc/elements/1.1/"
   xmlns:cc="http://web.resource.org/cc/"
   xmlns:rdf="http://www.w3.org/1999/02/22-rdf-syntax-ns#"
   xmlns:svg="http://www.w3.org/2000/svg"
   xmlns="http://www.w3.org/2000/svg"
   xmlns:sodipodi="http://inkscape.sourceforge.net/DTD/sodipodi-0.dtd"
   xmlns:inkscape="http://www.inkscape.org/namespaces/inkscape"
   version="1.0"
   width="200"
   height="160pt"
   id="svg2"
   sodipodi:version="0.32"
   inkscape:version="0.43"
   sodipodi:docname="POL Znak Żeglugowy B3a.svg"
   sodipodi:docbase="D:\obrazki\svg\inne\żeglugowe\B">
  <metadata
     id="metadata5">
    <rdf:RDF>
      <cc:Work
         rdf:about="">
        <dc:format>image/svg+xml</dc:format>
        <dc:type
           rdf:resource="http://purl.org/dc/dcmitype/StillImage" />
      </cc:Work>
    </rdf:RDF>
  </metadata>
  <sodipodi:namedview
     inkscape:window-height="708"
     inkscape:window-width="1024"
     inkscape:pageshadow="2"
     inkscape:pageopacity="0.0"
     borderopacity="1.0"
     bordercolor="#666666"
     pagecolor="#ffffff"
     id="base"
     showgrid="true"
     inkscape:grid-bbox="true"
     inkscape:grid-points="true"
     gridspacingx="10px"
     gridspacingy="10px"
     gridtolerance="3px"
     inkscape:zoom="0.5"
     inkscape:cx="219.04274"
     inkscape:cy="29.411018"
     inkscape:window-x="-4"
     inkscape:window-y="-4"
     inkscape:current-layer="svg2" />
  <defs
     id="defs5" />
  <rect
     style="opacity:1;color:#000000;fill:#ffffff;fill-opacity:1;fill-rule:evenodd;stroke:none;stroke-width:2;stroke-linecap:butt;stroke-linejoin:miter;marker:none;marker-start:none;marker-mid:none;marker-end:none;stroke-miterlimit:4;stroke-dasharray:none;stroke-dashoffset:0;stroke-opacity:1;visibility:visible;display:inline;overflow:visible"
     id="rect1307"
     width="200"
     height="200"
     x="0"
     y="0" />
  <rect
     style="opacity:1;color:#000000;fill:#f6000e;fill-opacity:1;fill-rule:evenodd;stroke:none;stroke-width:2;stroke-linecap:butt;stroke-linejoin:miter;marker:none;marker-start:none;marker-mid:none;marker-end:none;stroke-miterlimit:4;stroke-dasharray:none;stroke-dashoffset:0;stroke-opacity:1;visibility:visible;display:inline;overflow:visible"
     id="rect1314"
     width="20"
     height="200"
     x="0"
     y="0" />
  <rect
     style="opacity:1;color:#000000;fill:#f6000e;fill-opacity:1;fill-rule:evenodd;stroke:none;stroke-width:2;stroke-linecap:butt;stroke-linejoin:miter;marker:none;marker-start:none;marker-mid:none;marker-end:none;stroke-miterlimit:4;stroke-dasharray:none;stroke-dashoffset:0;stroke-opacity:1;visibility:visible;display:inline;overflow:visible"
     id="rect2189"
     width="20"
     height="200"
     x="180"
     y="0" />
  <rect
     style="opacity:1;color:#000000;fill:#f6000e;fill-opacity:1;fill-rule:evenodd;stroke:none;stroke-width:2;stroke-linecap:butt;stroke-linejoin:miter;marker:none;marker-start:none;marker-mid:none;marker-end:none;stroke-miterlimit:4;stroke-dasharray:none;stroke-dashoffset:0;stroke-opacity:1;visibility:visible;display:inline;overflow:visible"
     id="rect2191"
     width="20"
     height="200"
     x="180"
     y="-200"
     transform="matrix(5.551115e-17,1,-1,1.249001e-16,0,0)" />
  <rect
     style="opacity:1;color:#000000;fill:#f6000e;fill-opacity:1;fill-rule:evenodd;stroke:none;stroke-width:2;stroke-linecap:butt;stroke-linejoin:miter;marker:none;marker-start:none;marker-mid:none;marker-end:none;stroke-miterlimit:4;stroke-dasharray:none;stroke-dashoffset:0;stroke-opacity:1;visibility:visible;display:inline;overflow:visible"
     id="rect2193"
     width="20"
     height="200"
     x="-3.4416895e-015"
     y="-200"
     transform="matrix(5.551115e-17,1,-1,1.249001e-16,0,0)" />
  <g
     id="g1344"
     transform="translate(1.786565,4.249988)">
    <g
       transform="translate(20.79899,0)"
       id="g1331">
      <g
         id="g1310"
         transform="translate(3.18748,-1.381812)">
        <path
           sodipodi:nodetypes="cccc"
           id="path3061"
           d="M 32.12504,56.736355 L 62.5177,56.736355 L 47.32137,34.263625 L 32.12504,56.736355 z "
           style="fill:#000000;fill-opacity:1;fill-rule:evenodd;stroke:#000000;stroke-width:1px;stroke-linecap:butt;stroke-linejoin:miter;stroke-opacity:1" />
      </g>
      <path
         style="opacity:1;color:#000000;fill:none;fill-opacity:0.75;fill-rule:evenodd;stroke:#000000;stroke-width:18;stroke-linecap:butt;stroke-linejoin:miter;marker:none;marker-start:none;marker-mid:none;marker-end:none;stroke-miterlimit:4;stroke-dasharray:none;stroke-dashoffset:0;stroke-opacity:1;visibility:visible;display:inline;overflow:visible"
         d="M 50,50 L 50,160"
         id="path1314" />
    </g>
    <g
       transform="translate(-6,0)"
       id="g1339">
      <path
         style="color:#000000;fill:none;fill-opacity:0.75;fill-rule:evenodd;stroke:#000000;stroke-width:18;stroke-linecap:butt;stroke-linejoin:miter;marker:none;marker-start:none;marker-mid:none;marker-end:none;stroke-miterlimit:20;stroke-dasharray:22, 10;stroke-dashoffset:6.6;stroke-opacity:1;visibility:visible;display:inline;overflow:visible"
         d="M 131.11903,141.50002 L 131.11903,31.500025"
         id="path1320" />
      <g
         id="g1322"
         transform="matrix(-1,0,0,-1,178.4404,194.2636)">
        <path
           sodipodi:nodetypes="cccc"
           id="path1324"
           d="M 32.12504,56.736355 L 62.5177,56.736355 L 47.32137,34.263625 L 32.12504,56.736355 z "
           style="fill:#000000;fill-opacity:1;fill-rule:evenodd;stroke:#000000;stroke-width:1px;stroke-linecap:butt;stroke-linejoin:miter;stroke-opacity:1" />
      </g>
    </g>
  </g>
</svg>
