<?xml version="1.0" encoding="UTF-8" standalone="no"?>
<!-- Created with Inkscape (http://www.inkscape.org/) -->
<svg
   xmlns:dc="http://purl.org/dc/elements/1.1/"
   xmlns:cc="http://web.resource.org/cc/"
   xmlns:rdf="http://www.w3.org/1999/02/22-rdf-syntax-ns#"
   xmlns:svg="http://www.w3.org/2000/svg"
   xmlns="http://www.w3.org/2000/svg"
   xmlns:sodipodi="http://inkscape.sourceforge.net/DTD/sodipodi-0.dtd"
   xmlns:inkscape="http://www.inkscape.org/namespaces/inkscape"
   version="1.0"
   width="200"
   height="160pt"
   id="svg2"
   sodipodi:version="0.32"
   inkscape:version="0.43"
   sodipodi:docname="POL Znak Żeglugowy 5.15.svg"
   sodipodi:docbase="D:\obrazki\svg\inne\żeglugowe\E">
  <metadata
     id="metadata5">
    <rdf:RDF>
      <cc:Work
         rdf:about="">
        <dc:format>image/svg+xml</dc:format>
        <dc:type
           rdf:resource="http://purl.org/dc/dcmitype/StillImage" />
      </cc:Work>
    </rdf:RDF>
  </metadata>
  <sodipodi:namedview
     inkscape:window-height="671"
     inkscape:window-width="1024"
     inkscape:pageshadow="2"
     inkscape:pageopacity="0.0"
     borderopacity="1.0"
     bordercolor="#666666"
     pagecolor="#ffffff"
     id="base"
     showgrid="true"
     inkscape:grid-bbox="true"
     inkscape:grid-points="true"
     gridspacingx="10px"
     gridspacingy="10px"
     gridtolerance="3px"
     inkscape:zoom="1"
     inkscape:cx="198.26984"
     inkscape:cy="127.8152"
     inkscape:window-x="-4"
     inkscape:window-y="-4"
     inkscape:current-layer="svg2" />
  <defs
     id="defs5" />
  <rect
     style="opacity:1;color:#000000;fill:#018bf6;fill-opacity:1;fill-rule:evenodd;stroke:none;stroke-width:2;stroke-linecap:butt;stroke-linejoin:miter;marker:none;marker-start:none;marker-mid:none;marker-end:none;stroke-miterlimit:4;stroke-dasharray:none;stroke-dashoffset:0;stroke-opacity:1;visibility:visible;display:inline;overflow:visible"
     id="rect1307"
     width="200"
     height="200"
     x="0"
     y="0" />
  <rect
     style="opacity:1;color:#000000;fill:#ffffff;fill-opacity:1;fill-rule:evenodd;stroke:none;stroke-width:2;stroke-linecap:butt;stroke-linejoin:miter;marker:none;marker-start:none;marker-mid:none;marker-end:none;stroke-miterlimit:4;stroke-dasharray:none;stroke-dashoffset:0;stroke-opacity:1;visibility:visible;display:inline;overflow:visible"
     id="rect1305"
     width="105.60672"
     height="105.60672"
     x="88.618019"
     y="-52.803383"
     transform="matrix(0.707107,0.707107,-0.707107,0.707107,0,0)" />
  <g
     id="g1317"
     transform="translate(0,-10)">
    <path
       transform="matrix(-0.231002,-1.418814e-17,1.418814e-17,-0.231002,120.7902,116.0363)"
       d="M 90.000002,69.420555 L 127.49,134.35514 L 164.98,199.28972 L 90,199.28972 L 15.02,199.28972 L 52.510001,134.35514 L 90.000002,69.420555 z "
       inkscape:randomized="0"
       inkscape:rounded="0"
       inkscape:flatsided="false"
       sodipodi:arg2="-0.52359878"
       sodipodi:arg1="-1.5707963"
       sodipodi:r2="43.289722"
       sodipodi:r1="86.579445"
       sodipodi:cy="156"
       sodipodi:cx="90"
       sodipodi:sides="3"
       id="path1305"
       style="opacity:1;color:#000000;fill:#018bf6;fill-opacity:1;fill-rule:evenodd;stroke:none;stroke-width:2;stroke-linecap:butt;stroke-linejoin:miter;marker:none;marker-start:none;marker-mid:none;marker-end:none;stroke-miterlimit:4;stroke-dasharray:none;stroke-dashoffset:0;stroke-opacity:1;visibility:visible;display:inline;overflow:visible"
       sodipodi:type="star" />
    <path
       transform="matrix(-0.231002,-1.418814e-17,1.418814e-17,-0.231002,120.7902,146.0363)"
       d="M 90.000002,69.420555 L 127.49,134.35514 L 164.98,199.28972 L 90,199.28972 L 15.02,199.28972 L 52.510001,134.35514 L 90.000002,69.420555 z "
       inkscape:randomized="0"
       inkscape:rounded="0"
       inkscape:flatsided="false"
       sodipodi:arg2="-0.52359878"
       sodipodi:arg1="-1.5707963"
       sodipodi:r2="43.289722"
       sodipodi:r1="86.579445"
       sodipodi:cy="156"
       sodipodi:cx="90"
       sodipodi:sides="3"
       id="path1309"
       style="opacity:1;color:#000000;fill:#018bf6;fill-opacity:1;fill-rule:evenodd;stroke:none;stroke-width:2;stroke-linecap:butt;stroke-linejoin:miter;marker:none;marker-start:none;marker-mid:none;marker-end:none;stroke-miterlimit:4;stroke-dasharray:none;stroke-dashoffset:0;stroke-opacity:1;visibility:visible;display:inline;overflow:visible"
       sodipodi:type="star" />
    <path
       transform="matrix(-0.231002,-1.418814e-17,1.418814e-17,-0.231002,120.7902,176.0363)"
       d="M 90.000002,69.420555 L 127.49,134.35514 L 164.98,199.28972 L 90,199.28972 L 15.02,199.28972 L 52.510001,134.35514 L 90.000002,69.420555 z "
       inkscape:randomized="0"
       inkscape:rounded="0"
       inkscape:flatsided="false"
       sodipodi:arg2="-0.52359878"
       sodipodi:arg1="-1.5707963"
       sodipodi:r2="43.289722"
       sodipodi:r1="86.579445"
       sodipodi:cy="156"
       sodipodi:cx="90"
       sodipodi:sides="3"
       id="path1311"
       style="opacity:1;color:#000000;fill:#018bf6;fill-opacity:1;fill-rule:evenodd;stroke:none;stroke-width:2;stroke-linecap:butt;stroke-linejoin:miter;marker:none;marker-start:none;marker-mid:none;marker-end:none;stroke-miterlimit:4;stroke-dasharray:none;stroke-dashoffset:0;stroke-opacity:1;visibility:visible;display:inline;overflow:visible"
       sodipodi:type="star" />
  </g>
</svg>
