<?xml version="1.0" encoding="UTF-8" standalone="no"?>
<!-- Created with Inkscape (http://www.inkscape.org/) -->
<svg
   xmlns:dc="http://purl.org/dc/elements/1.1/"
   xmlns:cc="http://web.resource.org/cc/"
   xmlns:rdf="http://www.w3.org/1999/02/22-rdf-syntax-ns#"
   xmlns:svg="http://www.w3.org/2000/svg"
   xmlns="http://www.w3.org/2000/svg"
   xmlns:sodipodi="http://inkscape.sourceforge.net/DTD/sodipodi-0.dtd"
   xmlns:inkscape="http://www.inkscape.org/namespaces/inkscape"
   version="1.0"
   width="200"
   height="160pt"
   id="svg2"
   sodipodi:version="0.32"
   inkscape:version="0.43"
   sodipodi:docname="POL Znak Żeglugowy E24.svg"
   sodipodi:docbase="D:\obrazki\svg\inne\żeglugowe\E\rys\Nowy folder">
  <metadata
     id="metadata5">
    <rdf:RDF>
      <cc:Work
         rdf:about="">
        <dc:format>image/svg+xml</dc:format>
        <dc:type
           rdf:resource="http://purl.org/dc/dcmitype/StillImage" />
      </cc:Work>
    </rdf:RDF>
  </metadata>
  <sodipodi:namedview
     inkscape:window-height="708"
     inkscape:window-width="1024"
     inkscape:pageshadow="2"
     inkscape:pageopacity="0.0"
     borderopacity="1.0"
     bordercolor="#666666"
     pagecolor="#ffffff"
     id="base"
     showgrid="true"
     inkscape:grid-bbox="false"
     inkscape:grid-points="false"
     gridspacingx="10px"
     gridspacingy="10px"
     gridtolerance="3px"
     inkscape:zoom="0.5"
     inkscape:cx="149.98604"
     inkscape:cy="95.581995"
     inkscape:window-x="-4"
     inkscape:window-y="-4"
     inkscape:current-layer="svg2" />
  <defs
     id="defs5" />
  <rect
     style="opacity:1;color:#000000;fill:#018bf6;fill-opacity:1;fill-rule:evenodd;stroke:none;stroke-width:2;stroke-linecap:butt;stroke-linejoin:miter;marker:none;marker-start:none;marker-mid:none;marker-end:none;stroke-miterlimit:4;stroke-dasharray:none;stroke-dashoffset:0;stroke-opacity:1;visibility:visible;display:inline;overflow:visible"
     id="rect1307"
     width="200"
     height="200"
     x="0"
     y="0" />
  <g
     id="g4033"
     transform="translate(-6.828125,0)"
     style="stroke:#ffffff;stroke-opacity:1">
    <path
       sodipodi:nodetypes="cccc"
       id="path1326"
       d="M 38.5,157 C 65.88843,175.43252 98.34281,115.83472 121,144.5 C 134.31867,136.508 145.17634,139.18032 154.5,148.5 C 156.80145,152.64204 168.32551,153.1197 172,143.5"
       style="opacity:1;color:#000000;fill:none;fill-opacity:1;fill-rule:evenodd;stroke:#ffffff;stroke-width:5;stroke-linecap:butt;stroke-linejoin:miter;marker:none;marker-start:none;marker-mid:none;marker-end:none;stroke-miterlimit:4;stroke-dasharray:none;stroke-dashoffset:0;stroke-opacity:1;visibility:visible;display:inline;overflow:visible" />
    <path
       id="path1328"
       d="M 112.84375,86.5 L 111.4375,92.875 L 118.15625,98.1875 L 52.375,116.90625 C 46.70802,118.46 42.73779,125.48773 43.1875,133.53125 L 43.28125,134.59375 C 62.56351,129.66192 89.66117,122.62331 115.03125,114.78125 C 140.8797,106.79132 165.08183,97.740875 176.875,89.9375 C 154.64066,88.491841 132.37949,87.046128 112.84375,86.5 z M 177.65625,95.4375 C 164.26839,103.71421 141.2248,111.91989 116.5,119.5625 C 90.65829,127.55035 63.14867,134.68286 43.8125,139.625 L 44.25,144.125 C 76.47181,159.13038 85.81594,113.10394 122.03125,133.53125 C 162.55123,125.53615 177.33347,109.59551 177.53125,96.75 L 177.65625,95.4375 z "
       style="fill:#ffffff;fill-opacity:1;fill-rule:evenodd;stroke:#ffffff;stroke-width:1px;stroke-linecap:butt;stroke-linejoin:miter;stroke-opacity:1" />
    <path
       sodipodi:nodetypes="cssccscccs"
       id="path3148"
       d="M 60.74526,69.821284 C 59.90482,71.549369 57.70943,79.705811 57.69196,88.984235 C 57.67437,98.324877 64.47252,99.804635 71.48054,101.00505 C 80.60269,102.5676 79.24088,102.06571 82.79425,108.42967 L 90.21887,107.72256 C 88.17611,101.22953 86.3939,97.24456 82.08714,95.348196 C 76.96461,93.092634 71.74599,92.033491 70.06632,88.630682 C 69.7737,84.0548 71.8024,80.25269 74.30896,76.609867 L 77.84449,66.356818 C 76.90169,58.876621 65.56686,59.907219 60.74526,69.821284 z "
       style="fill:#ffffff;fill-opacity:1;fill-rule:evenodd;stroke:#ffffff;stroke-width:1px;stroke-linecap:butt;stroke-linejoin:miter;stroke-opacity:1" />
    <path
       transform="translate(-239.25,0.25)"
       d="M 318.5 51.375 A 6.875 6.875 0 1 1  304.75,51.375 A 6.875 6.875 0 1 1  318.5 51.375 z"
       sodipodi:ry="6.875"
       sodipodi:rx="6.875"
       sodipodi:cy="51.375"
       sodipodi:cx="311.625"
       id="path3150"
       style="opacity:1;color:#000000;fill:#ffffff;fill-opacity:1;fill-rule:evenodd;stroke:#ffffff;stroke-width:5;stroke-linecap:butt;stroke-linejoin:miter;marker:none;marker-start:none;marker-mid:none;marker-end:none;stroke-miterlimit:4;stroke-dasharray:none;stroke-dashoffset:0;stroke-opacity:1;visibility:visible;display:inline;overflow:visible"
       sodipodi:type="arc" />
    <path
       sodipodi:nodetypes="ccccc"
       id="path3152"
       d="M 72.25,75.5 L 88.50792,80.085566 C 93.56436,81.512387 94.88007,75.41901 89.96483,74.626283 L 74.25,70.25 L 72.25,75.5 z "
       style="fill:#ffffff;fill-opacity:1;fill-rule:evenodd;stroke:#ffffff;stroke-width:1px;stroke-linecap:butt;stroke-linejoin:miter;stroke-opacity:1" />
    <path
       sodipodi:nodetypes="ccccc"
       id="path3154"
       d="M 73.5,63.75 L 93.7558,61.810615 C 98.44374,61.039892 99.81733,67.104901 93.9846,67.567087 L 74,69.25 L 73.5,63.75 z "
       style="fill:#ffffff;fill-opacity:1;fill-rule:evenodd;stroke:#ffffff;stroke-width:1px;stroke-linecap:butt;stroke-linejoin:miter;stroke-opacity:1" />
    <path
       id="path3156"
       d="M 95.75,65 L 90,77.75"
       style="opacity:1;color:#000000;fill:none;fill-opacity:0.75;fill-rule:evenodd;stroke:#ffffff;stroke-width:4;stroke-linecap:butt;stroke-linejoin:miter;marker:none;marker-start:none;marker-mid:none;marker-end:none;stroke-miterlimit:4;stroke-dasharray:none;stroke-dashoffset:0;stroke-opacity:1;visibility:visible;display:inline;overflow:visible" />
    <path
       id="path3158"
       d="M 94,71.25 L 113,90.25"
       style="opacity:1;color:#000000;fill:none;fill-opacity:0.75;fill-rule:evenodd;stroke:#ffffff;stroke-width:4;stroke-linecap:butt;stroke-linejoin:miter;marker:none;marker-start:none;marker-mid:none;marker-end:none;stroke-miterlimit:4;stroke-dasharray:none;stroke-dashoffset:0;stroke-opacity:1;visibility:visible;display:inline;overflow:visible" />
  </g>
</svg>
